<?xml version="1.0" encoding="utf-8"?>
<!-- Generator: Adobe Illustrator 16.0.0, SVG Export Plug-In . SVG Version: 6.00 Build 0)  -->
<!DOCTYPE svg PUBLIC "-//W3C//DTD SVG 1.1//EN" "http://www.w3.org/Graphics/SVG/1.1/DTD/svg11.dtd">
<svg version="1.1" id="Layer_1" xmlns="http://www.w3.org/2000/svg" xmlns:xlink="http://www.w3.org/1999/xlink" x="0px" y="0px"
	 width="100px" height="100px" viewBox="0 0 100 100" enable-background="new 0 0 100 100" xml:space="preserve">
<g>
	<path fill="#231F20" d="M28.446,35.875c0,2.505-2.036,4.546-4.55,4.546H13.287c-2.51,0-4.55-2.041-4.55-4.546l0,0
		c0-2.511,2.041-4.551,4.55-4.551h10.609C26.41,31.324,28.446,33.364,28.446,35.875L28.446,35.875z"/>
	<path fill="#231F20" d="M40.082,51.762c0,2.506-2.036,4.545-4.55,4.545H24.923c-2.509,0-4.55-2.039-4.55-4.545l0,0
		c0-2.51,2.041-4.55,4.55-4.55h10.609C38.046,47.213,40.082,49.252,40.082,51.762L40.082,51.762z"/>
	<path fill="#231F20" d="M50.988,67.65c0,2.504-2.035,4.545-4.549,4.545H35.83c-2.509,0-4.55-2.041-4.55-4.545l0,0
		c0-2.51,2.041-4.551,4.55-4.551h10.609C48.953,63.1,50.988,65.141,50.988,67.65L50.988,67.65z"/>
	<path fill="#231F20" d="M82.852,11.532H16.776c-0.038,0-0.068-0.021-0.106-0.021H6.062c-2.51,0-4.55,2.041-4.55,4.55
		c0,2.505,2.04,4.546,4.55,4.546h10.307h0.302h7.584l23.269,23.574c6.059,6.14,15.973,6.203,22.111,0.145l19.43-19.173
		c0.209,0.64,0.351,1.309,0.351,2.016v45.683c0,3.617-2.944,6.562-6.562,6.562H55.374c-0.072-0.005-0.133-0.043-0.209-0.043H44.557
		c-2.511,0-4.551,2.041-4.551,4.552c0,2.504,2.041,4.545,4.551,4.545h2.625v0.021h35.669c8.623,0,15.637-7.015,15.637-15.636V27.169
		C98.486,18.546,91.475,11.532,82.852,11.532z M63.262,37.867c-2.574,2.543-6.742,2.515-9.281-0.06l-16.979-17.2h43.744
		L63.262,37.867z"/>
</g>
</svg>
