<?xml version="1.0" encoding="utf-8"?>
<!-- Generator: Adobe Illustrator 16.0.0, SVG Export Plug-In . SVG Version: 6.00 Build 0)  -->
<!DOCTYPE svg PUBLIC "-//W3C//DTD SVG 1.1//EN" "http://www.w3.org/Graphics/SVG/1.1/DTD/svg11.dtd">
<svg version="1.1" id="Layer_1" xmlns="http://www.w3.org/2000/svg" xmlns:xlink="http://www.w3.org/1999/xlink" x="0px" y="0px"
	 width="100px" height="100px" viewBox="0 0 100 100" enable-background="new 0 0 100 100" xml:space="preserve">
<path fill="#231F20" d="M70.75,53.949l2.061-16H56.969V27.733c0-4.632,1.291-7.788,7.932-7.788l8.466-0.006V5.632
	C71.906,5.436,66.882,5,61.023,5C48.808,5,40.45,12.458,40.45,26.151v11.797H26.633v15.999H40.45V95h16.519V53.949H70.75z"/>
</svg>
