<?xml version="1.0" encoding="utf-8"?>
<!-- Generator: Adobe Illustrator 16.0.0, SVG Export Plug-In . SVG Version: 6.00 Build 0)  -->
<!DOCTYPE svg PUBLIC "-//W3C//DTD SVG 1.1//EN" "http://www.w3.org/Graphics/SVG/1.1/DTD/svg11.dtd">
<svg version="1.1" id="Your_Icon" xmlns="http://www.w3.org/2000/svg" xmlns:xlink="http://www.w3.org/1999/xlink" x="0px" y="0px"
	 width="100px" height="100px" viewBox="0 0 100 100" enable-background="new 0 0 100 100" xml:space="preserve">
<g>
	<g>
		<path fill="#F26649" d="M51.024,14.318c-1.126,0-2.042-0.916-2.042-2.046l0.004-10.228C48.987,0.916,49.903,0,51.031,0
			c1.126,0,2.045,0.917,2.045,2.046l-0.004,10.226C53.072,13.403,52.156,14.318,51.024,14.318"/>
	</g>
	<g>
		<path fill="#F26649" d="M69.427,20.458c-0.43,0-0.854-0.136-1.223-0.409c-0.909-0.677-1.09-1.958-0.41-2.862l6.14-8.18
			c0.674-0.904,1.96-1.085,2.864-0.409c0.9,0.679,1.082,1.962,0.406,2.863l-6.141,8.178C70.664,20.177,70.048,20.458,69.427,20.458"
			/>
	</g>
	<g>
		<path fill="#F26649" d="M30.575,20.445c-0.623,0-1.232-0.281-1.638-0.819l-6.133-8.183c-0.677-0.903-0.494-2.185,0.414-2.862
			c0.898-0.676,2.179-0.495,2.858,0.411l6.133,8.184c0.677,0.903,0.492,2.186-0.409,2.861
			C31.434,20.311,31.002,20.445,30.575,20.445"/>
	</g>
	<g>
		<path fill="#F26649" d="M16.25,34.755c-0.305,0-0.618-0.069-0.91-0.215l-8.18-4.093c-1.01-0.507-1.419-1.734-0.914-2.745
			c0.508-1.009,1.734-1.416,2.745-0.916l8.181,4.093c1.01,0.507,1.417,1.734,0.914,2.746C17.725,34.343,17.003,34.755,16.25,34.755"
			/>
	</g>
	<g>
		<path fill="#F26649" d="M83.74,34.779c-0.751,0-1.469-0.415-1.829-1.129c-0.507-1.013-0.095-2.24,0.914-2.747l8.184-4.087
			c1.012-0.501,2.238-0.095,2.746,0.917c0.503,1.01,0.095,2.237-0.918,2.744l-8.18,4.087C84.356,34.712,84.047,34.779,83.74,34.779"
			/>
	</g>
	<g>
		<path fill="#F26649" d="M65.314,100l-36.813-0.013c-1.083,0-1.959-0.878-1.959-1.961l0.011-30.613
			c-4.015-5.337-6.131-11.662-6.128-18.341c0.005-16.87,13.734-30.587,30.6-30.581c16.87,0.005,30.588,13.734,30.584,30.604
			l-0.002,1.678c6.132,15.838,6.13,16.29,6.13,16.73c-0.002,2.209-1.798,4.006-4.007,4.004l-4.173-0.002l-0.004,4.175
			c-0.002,7.182-5.352,11.178-12.274,12.134l-0.004,10.229C67.274,99.123,66.396,100.002,65.314,100z M30.462,96.067l32.891,0.013
			l0.004-10.097c0-1.082,0.878-1.959,1.96-1.959c5.686,0,10.311-2.664,10.314-8.346l0.003-6.134c0-1.086,0.877-1.962,1.961-1.962
			l6.134,0.001c0.013,0,0.021-0.001,0.029-0.007c-0.638-1.93-3.893-10.441-5.942-15.731c-0.086-0.226-0.133-0.466-0.133-0.709
			l0.002-2.045c0.005-14.706-11.956-26.675-26.663-26.68c-14.705-0.005-26.673,11.954-26.677,26.662
			c-0.003,6.018,1.972,11.711,5.709,16.463c0.271,0.345,0.419,0.772,0.419,1.214L30.462,96.067z"/>
	</g>
	<g>
		<path fill="#F26649" d="M50.997,36.151c-5.892-0.003-10.682,4.788-10.685,10.679c-0.001,5.889,4.788,10.683,10.677,10.685
			c5.892,0.004,10.684-4.787,10.688-10.676C61.677,40.948,56.887,36.153,50.997,36.151 M50.987,62.417
			c-8.593-0.002-15.581-6.996-15.579-15.588c0.003-8.595,6.996-15.583,15.59-15.579c8.594,0.003,15.58,6.997,15.578,15.59
			C66.571,55.432,59.581,62.42,50.987,62.417"/>
	</g>
	<g>
		<path fill="#F26649" d="M50.995,44.093c-1.511,0-2.74,1.229-2.74,2.739c-0.001,1.511,1.229,2.74,2.736,2.74
			c1.513,0,2.739-1.229,2.739-2.739C53.73,45.324,52.504,44.093,50.995,44.093 M50.989,54.476c-4.212-0.002-7.638-3.432-7.636-7.646
			c0.001-4.213,3.43-7.64,7.642-7.638c4.213,0.002,7.639,3.431,7.639,7.644C58.63,51.05,55.202,54.476,50.989,54.476"/>
	</g>
</g>
</svg>
