<?xml version="1.0" encoding="utf-8"?>
<!-- Generator: Adobe Illustrator 16.0.0, SVG Export Plug-In . SVG Version: 6.00 Build 0)  -->
<!DOCTYPE svg PUBLIC "-//W3C//DTD SVG 1.1//EN" "http://www.w3.org/Graphics/SVG/1.1/DTD/svg11.dtd">
<svg version="1.1" id="Layer_1" xmlns:sketch="http://www.bohemiancoding.com/sketch/ns"
	 xmlns="http://www.w3.org/2000/svg" xmlns:xlink="http://www.w3.org/1999/xlink" x="0px" y="0px" width="40px" height="40px"
	 viewBox="-89 196.75 40 40" enable-background="new -89 196.75 40 40" xml:space="preserve">
<g>
	<path fill="#3185E7" d="M-63.265,219.245c-3.563,3.562-9.355,3.562-12.916,0c-0.474-0.475-1.241-0.475-1.715,0
		c-0.475,0.473-0.475,1.239,0,1.714c2.253,2.254,5.213,3.38,8.171,3.38c2.958,0,5.917-1.126,8.171-3.38
		c0.473-0.474,0.473-1.24,0-1.714C-62.026,218.771-62.792,218.771-63.265,219.245z"/>
	<path fill="#3185E7" d="M-69.687,196.75c-10.65,0-19.313,8.663-19.313,19.313c0,9.849,7.417,17.983,16.954,19.152
		c0.405,0.903,1.305,1.534,2.359,1.534c1.427,0,2.585-1.158,2.585-2.586c0-1.43-1.16-2.585-2.585-2.585
		c-0.925,0-1.729,0.489-2.187,1.216c-8.281-1.079-14.702-8.162-14.702-16.731c0-9.312,7.577-16.891,16.889-16.891
		c8.903,0,16.222,6.929,16.847,15.679h-1.332c-0.1,0-0.188,0.033-0.283,0.056c-0.279-0.55-0.735-0.991-1.309-1.23
		c-1.141-6.663-6.942-11.754-13.923-11.754c-6.983,0-12.786,5.091-13.925,11.754c-0.934,0.39-1.59,1.31-1.59,2.387
		c0,1.074,0.656,1.995,1.59,2.385c1.14,6.663,6.942,11.754,13.925,11.754c6.982,0,12.784-5.091,13.923-11.754
		c0.57-0.236,1.03-0.682,1.309-1.23c0.092,0.023,0.181,0.058,0.283,0.058h2.585c0.667,0,1.211-0.544,1.211-1.213
		C-50.375,205.413-59.037,196.75-69.687,196.75z M-69.687,227.78c-6.461,0-11.718-5.256-11.718-11.717
		c0-6.462,5.256-11.718,11.718-11.718c6.459,0,11.715,5.256,11.715,11.718C-57.972,222.523-63.228,227.78-69.687,227.78z"/>
</g>
</svg>
