<?xml version="1.0" encoding="utf-8"?>
<!-- Generator: Adobe Illustrator 16.0.0, SVG Export Plug-In . SVG Version: 6.00 Build 0)  -->
<!DOCTYPE svg PUBLIC "-//W3C//DTD SVG 1.1//EN" "http://www.w3.org/Graphics/SVG/1.1/DTD/svg11.dtd">
<svg version="1.1" id="Layer_2" xmlns="http://www.w3.org/2000/svg" xmlns:xlink="http://www.w3.org/1999/xlink" x="0px" y="0px"
	 width="200px" height="50px" viewBox="0 0 200 50" enable-background="new 0 0 200 50" xml:space="preserve">
<g>
	<g>
		<path fill="#FFFFFF" d="M158.279,11.456c0,0-8.904-0.27-8.904,7.824v3.022v3.022c0,8.095,8.904,7.824,8.904,7.824
			s8.903,0.271,8.903-7.824v-3.022V19.28C167.183,11.186,158.279,11.456,158.279,11.456z M160.761,24.893
			c0,0-0.27,2.536-2.481,2.536c-2.213,0-2.482-2.536-2.482-2.536v-2.59v-2.59c0,0,0.27-2.536,2.482-2.536
			c2.212,0,2.481,2.536,2.481,2.536v2.59V24.893z"/>
		<path fill="#FFFFFF" d="M92.191,11.456c0,0-2.47,0.067-4.394,1.7c-1.374-1.359-4.412-2.502-5.875-0.621
			c-1.889,2.428,1.403,5.019,1.403,5.019v19.911c0,1.699,1.377,3.076,3.076,3.076s3.076-1.377,3.076-3.076v-5.114
			c0.494,0.354,1.377,0.798,2.714,0.798c0,0,8.903,0.271,8.903-7.824v-3.022V19.28C101.095,11.186,92.191,11.456,92.191,11.456z
			 M94.673,24.893c0,0-0.27,2.536-2.482,2.536c0,0-1.779,0.105-2.714-0.542v-8.9c0.276-0.348,0.971-0.811,2.714-0.811
			c2.212,0,2.482,2.536,2.482,2.536v2.59V24.893z"/>
		<path fill="#FFFFFF" d="M142.954,17.23c3.13,0.971,3.723-1.025,3.723-1.025c2.591-4.479-6.098-4.749-6.098-4.749
			s-8.903-0.27-8.903,7.824v3.022v3.022c0,8.095,8.903,7.824,8.903,7.824s8.688-0.27,6.098-4.748c0,0-0.593-1.997-3.723-1.025
			c0,0,0.431,0.324-2.375,0.054c-2.213,0-2.481-2.536-2.481-2.536v-2.59v-2.59c0,0,0.269-2.536,2.481-2.536
			C143.385,16.906,142.954,17.23,142.954,17.23z"/>
		<circle fill="#FFFFFF" cx="123.149" cy="29.372" r="4.047"/>
		<path fill="#FFFFFF" d="M117.105,11.546c-4.061,0-5.529,2.05-5.833,2.562c-0.516-1.611-4.718-3.896-6.524-1.574
			c-1.888,2.428,1.403,5.019,1.403,5.019v12.519c0,1.699,1.377,3.076,3.076,3.076c1.698,0,3.075-1.377,3.075-3.076v-10.9
			c2.213-2.482,4.533-1.187,6.8-1.619C121.369,17.122,121.746,11.546,117.105,11.546z"/>
	</g>
	<g>
		<path fill="none" stroke="#000000" stroke-width="0.3238" stroke-miterlimit="10" d="M49.883,17.363
			c-0.006,0.005-0.012,0.01-0.018,0.015C49.871,17.373,49.876,17.369,49.883,17.363z"/>
	</g>
	<g>
		<path fill="none" d="M58.979,26.009l-1.525,1.497C58.044,27.098,58.558,26.59,58.979,26.009z"/>
		<path fill="none" d="M60.187,22.302c0-3.493-2.832-6.324-6.324-6.324c-3.493,0-6.325,2.832-6.325,6.324s2.832,6.325,6.325,6.325
			c1.334,0,2.57-0.416,3.591-1.121l1.525-1.497C59.736,24.967,60.187,23.689,60.187,22.302z"/>
		<path opacity="0.6" fill="#FFFFFF" d="M49.704,17.378l-8.209,8.384c0.461,1.65,1.242,3.166,2.274,4.477
			c8.089,3.779,13.677-2.726,13.677-2.726l0.008-0.007c-1.021,0.705-2.256,1.121-3.591,1.121c-3.493,0-6.325-2.832-6.325-6.325
			s2.832-6.324,6.325-6.324c3.493,0,6.324,2.832,6.324,6.324c0,1.387-0.451,2.665-1.208,3.707l7.264-7.124
			c-0.392-1.423-1.021-2.746-1.845-3.925C57.778,10.163,49.704,17.378,49.704,17.378z"/>
	</g>
	<g>
		<path fill="#FFFFFF" d="M71.589,14.963c-0.911,0-1.737,0.361-2.348,0.945l0,0.001c-0.036,0.034-0.071,0.069-0.105,0.105
			l-2.889,2.888c-0.001-0.005-0.002-0.011-0.004-0.016l-7.264,7.124c-0.421,0.581-0.935,1.089-1.525,1.497l-0.008,0.007
			c0,0-5.588,6.505-13.677,2.726c2.352,2.987,5.998,4.907,10.094,4.907c2.546,0,4.917-0.744,6.914-2.022l0.075,0.132l0.686-0.654
			c0.831-0.62,1.583-1.338,2.242-2.137l9.837-9.377c0.227-0.169,0.434-0.363,0.611-0.583c0.475-0.584,0.761-1.329,0.761-2.141
			C74.989,16.485,73.467,14.963,71.589,14.963z"/>
		<path fill="#FFFFFF" d="M49.642,17.441l0.062-0.063c0,0,8.075-7.215,14.694-2.417c-2.321-3.325-6.173-5.501-10.535-5.501
			c-3.148,0-6.031,1.134-8.265,3.015l-0.035-0.043L34.239,23.777c-0.86,0.617-1.422,1.622-1.422,2.761
			c0,1.877,1.522,3.399,3.4,3.399c0.533,0,1.036-0.127,1.485-0.346l0,0c0.689-0.336,1.246-0.896,1.578-1.587l10.423-10.487
			L49.642,17.441z"/>
	</g>
</g>
</svg>
