<?xml version="1.0" encoding="utf-8"?>
<!-- Generator: Adobe Illustrator 16.0.0, SVG Export Plug-In . SVG Version: 6.00 Build 0)  -->
<!DOCTYPE svg PUBLIC "-//W3C//DTD SVG 1.1//EN" "http://www.w3.org/Graphics/SVG/1.1/DTD/svg11.dtd">
<svg version="1.1" id="Layer_1" xmlns="http://www.w3.org/2000/svg" xmlns:xlink="http://www.w3.org/1999/xlink" x="0px" y="0px"
	 width="200px" height="50px" viewBox="0 0 200 50" enable-background="new 0 0 200 50" xml:space="preserve">
<g>
	<path fill="#FFFFFF" d="M22.7,34.7L19,20.3l-3.8,14.4h-3.6L6,15.3h3.8l3.8,14.9l4-14.9h2.7l4,14.9l3.8-14.9h3.8l-5.6,19.4H22.7z"/>
	<path fill="#FFFFFF" d="M36,34.7V15.3h3.4v19.4H36z"/>
	<path fill="#FFFFFF" d="M46.2,34.7V15.3h3.4v16.4h8.6v3H46.2z"/>
	<path fill="#FFFFFF" d="M63,34.7V15.3h7.2c6.1,0,10.2,4,10.2,9.7c0,5.7-4.1,9.7-10.1,9.7H63z M76.9,25c0-3.7-2.3-6.7-6.6-6.7h-3.8
		v13.4h3.8C74.5,31.7,76.9,28.7,76.9,25z"/>
	<path fill="#FFFFFF" d="M96.7,34.7l-4.3-7.3H89v7.3h-3.4V15.3h8.5c3.8,0,6.4,2.5,6.4,6.1c0,3.4-2.3,5.3-4.6,5.7l4.8,7.6H96.7z
		 M97,21.3c0-1.9-1.4-3.1-3.3-3.1H89v6.2h4.7C95.6,24.4,97,23.2,97,21.3z"/>
	<path fill="#FFFFFF" d="M104,25c0-5.8,4.1-10,9.9-10c5.8,0,9.9,4.2,9.9,10c0,5.8-4.1,10-9.9,10C108.1,35,104,30.8,104,25z
		 M120.4,25c0-4-2.5-7-6.4-7c-3.9,0-6.4,3-6.4,7c0,4,2.5,7,6.4,7C117.8,32,120.4,29,120.4,25z"/>
	<path fill="#FFFFFF" d="M129,27V15.3h3.5v11.6c0,3.1,1.7,5.1,4.9,5.1c3.2,0,4.9-2,4.9-5.1V15.3h3.5V27c0,4.8-2.8,8-8.4,8
		C131.8,35,129,31.8,129,27z"/>
	<path fill="#FFFFFF" d="M166.4,34.7l-10.1-13.9v13.9h-3.4V15.3h3.5l9.9,13.4V15.3h3.4v19.4H166.4z"/>
	<path fill="#FFFFFF" d="M176.6,34.7V15.3h7.2c6.1,0,10.2,4,10.2,9.7c0,5.7-4.1,9.7-10.1,9.7H176.6z M190.5,25
		c0-3.7-2.3-6.7-6.6-6.7H180v13.4h3.8C188.1,31.7,190.5,28.7,190.5,25z"/>
</g>
</svg>
