<?xml version="1.0" encoding="utf-8"?>
<!-- Generator: Adobe Illustrator 16.0.0, SVG Export Plug-In . SVG Version: 6.00 Build 0)  -->
<!DOCTYPE svg PUBLIC "-//W3C//DTD SVG 1.1//EN" "http://www.w3.org/Graphics/SVG/1.1/DTD/svg11.dtd">
<svg version="1.1" id="Layer_1" xmlns="http://www.w3.org/2000/svg" xmlns:xlink="http://www.w3.org/1999/xlink" x="0px" y="0px"
	 width="400px" height="200px" viewBox="0 0 400 200" enable-background="new 0 0 400 200" xml:space="preserve">
<g id="MySQL_2_">
	
		<linearGradient id="SVGID_1_" gradientUnits="userSpaceOnUse" x1="487.874" y1="-134.3345" x2="487.874" y2="-237.1751" gradientTransform="matrix(1 0 0 -1 -356 -85)">
		<stop  offset="0" style="stop-color:#1C75BC"/>
		<stop  offset="1" style="stop-color:#3C5DAA"/>
	</linearGradient>
	<path fill="url(#SVGID_1_)" d="M148.8,139.3h-5.4c-0.2-9.2-0.7-17.8-1.6-25.9h0l-8.3,25.9h-4.1l-8.2-25.9h0
		c-0.6,7.8-1,16.4-1.2,25.9h-5c0.3-11.5,1.1-22.4,2.4-32.5h6.7l7.8,23.9h0.1l7.9-23.9h6.4C147.7,118.7,148.5,129.5,148.8,139.3"/>
	
		<linearGradient id="SVGID_2_" gradientUnits="userSpaceOnUse" x1="517.6934" y1="-134.335" x2="517.6934" y2="-237.1756" gradientTransform="matrix(1 0 0 -1 -356 -85)">
		<stop  offset="0" style="stop-color:#1C75BC"/>
		<stop  offset="1" style="stop-color:#3C5DAA"/>
	</linearGradient>
	<path fill="url(#SVGID_2_)" d="M172.4,115.4c-2.2,12-5.1,20.7-8.8,26.2c-2.8,4.2-5.9,6.3-9.3,6.3c-0.9,0-2-0.3-3.3-0.8v-2.9
		c0.6,0.1,1.4,0.1,2.3,0.1c1.6,0,2.8-0.4,3.8-1.3c1.2-1.1,1.7-2.2,1.7-3.6c0-0.9-0.4-2.7-1.3-5.5l-6-18.5h5.3l4.3,13.8
		c1,3.1,1.4,5.3,1.2,6.6c2.3-6.3,4-13.1,4.9-20.4H172.4z"/>
	
		<linearGradient id="SVGID_3_" gradientUnits="userSpaceOnUse" x1="592.9893" y1="-187.3335" x2="592.9893" y2="-234.6961" gradientTransform="matrix(1 0 0 -1 -356 -85)">
		<stop  offset="0" style="stop-color:#FAA627"/>
		<stop  offset="1" style="stop-color:#F58229"/>
	</linearGradient>
	<polygon fill="url(#SVGID_3_)" points="244.7,139.3 229.3,139.3 229.3,106.8 234.5,106.8 234.5,135.3 244.7,135.3 	"/>
	
		<linearGradient id="SVGID_4_" gradientUnits="userSpaceOnUse" x1="567.834" y1="-187.333" x2="567.834" y2="-234.6969" gradientTransform="matrix(1 0 0 -1 -356 -85)">
		<stop  offset="0" style="stop-color:#FAA627"/>
		<stop  offset="1" style="stop-color:#F58229"/>
	</linearGradient>
	<path fill="url(#SVGID_4_)" d="M225.2,140.1l-6-2.9c0.5-0.4,1-0.9,1.5-1.4c2.5-3,3.8-7.4,3.8-13.2c0-10.7-4.2-16.1-12.6-16.1
		c-4.1,0-7.4,1.4-9.7,4.1c-2.5,3-3.8,7.4-3.8,13.2c0,5.7,1.1,9.9,3.4,12.6c2.1,2.4,5.1,3.6,9.3,3.6c1.5,0,3-0.2,4.3-0.6l7.8,4.5
		L225.2,140.1z M205.9,132.8c-1.3-2.1-2-5.5-2-10.2c0-8.2,2.5-12.3,7.5-12.3c2.6,0,4.5,1,5.7,2.9c1.3,2.1,2,5.5,2,10.1
		c0,8.2-2.5,12.4-7.5,12.4C209,135.8,207.1,134.8,205.9,132.8"/>
	
		<linearGradient id="SVGID_5_" gradientUnits="userSpaceOnUse" x1="541.9814" y1="-187.3335" x2="541.9814" y2="-234.6961" gradientTransform="matrix(1 0 0 -1 -356 -85)">
		<stop  offset="0" style="stop-color:#FAA627"/>
		<stop  offset="1" style="stop-color:#F58229"/>
	</linearGradient>
	<path fill="url(#SVGID_5_)" d="M196.2,130.3c0,2.8-1,5-3,6.8c-2,1.8-4.7,2.6-8.1,2.6c-3.2,0-6.3-1-9.2-3l1.4-2.8
		c2.6,1.3,4.9,1.9,7,1.9c2,0,3.5-0.4,4.6-1.3c1.1-0.9,1.8-2.1,1.8-3.6c0-1.9-1.3-3.6-3.8-5c-2.3-1.2-6.8-3.9-6.8-3.9
		c-2.5-1.8-3.7-3.7-3.7-6.9c0-2.6,0.9-4.8,2.8-6.4c1.8-1.6,4.2-2.4,7.1-2.4c3,0,5.8,0.8,8.2,2.4l-1.3,2.8c-2.1-0.9-4.2-1.3-6.3-1.3
		c-1.7,0-2.9,0.4-3.8,1.2c-0.9,0.8-1.5,1.8-1.5,3.1c0,1.9,1.4,3.6,3.9,5c2.3,1.2,7,3.9,7,3.9C194.9,125.2,196.2,127.2,196.2,130.3"
		/>
	
		<linearGradient id="SVGID_6_" gradientUnits="userSpaceOnUse" x1="582.9404" y1="-134.333" x2="582.9404" y2="-237.1761" gradientTransform="matrix(1 0 0 -1 -356 -85)">
		<stop  offset="0" style="stop-color:#1C75BC"/>
		<stop  offset="1" style="stop-color:#3C5DAA"/>
	</linearGradient>
	<path fill="url(#SVGID_6_)" d="M251.2,96c-3.1-0.1-5.6,0.2-7.6,1.1c-0.6,0.2-1.5,0.2-1.6,1c0.3,0.3,0.4,0.8,0.6,1.3
		c0.5,0.8,1.3,1.8,2,2.4c0.8,0.6,1.6,1.3,2.5,1.8c1.5,0.9,3.3,1.5,4.7,2.4c0.9,0.5,1.7,1.3,2.6,1.8c0.4,0.3,0.7,0.8,1.3,1v-0.1
		c-0.3-0.4-0.4-0.9-0.6-1.3c-0.4-0.4-0.8-0.7-1.2-1.1c-1.1-1.5-2.6-2.9-4.1-4c-1.3-0.9-4-2-4.5-3.5c0,0,0,0-0.1-0.1
		c0.9-0.1,1.9-0.4,2.7-0.6c1.3-0.4,2.5-0.3,3.9-0.6c0.6-0.2,1.3-0.4,1.9-0.6v-0.4c-0.7-0.7-1.2-1.7-2-2.3c-2-1.7-4.2-3.4-6.5-4.8
		c-1.2-0.8-2.8-1.3-4.1-2c-0.5-0.2-1.3-0.4-1.5-0.7c-0.7-0.9-1.1-2-1.6-3c-1.1-2.2-2.2-4.5-3.2-6.8c-0.7-1.5-1.1-3.1-2-4.5
		c-4-6.7-8.4-10.7-15.2-14.7c-1.4-0.8-3.2-1.2-5-1.6c-1,0-2-0.1-2.9-0.2c-0.6-0.3-1.3-1-1.8-1.4c-2.2-1.4-8-4.5-9.6-0.4
		c-1.1,2.6,1.6,5.1,2.5,6.4c0.7,0.9,1.5,1.9,2,2.9c0.3,0.7,0.4,1.4,0.6,2.1c0.6,1.7,1.2,3.6,2,5.3c0.4,0.8,0.9,1.7,1.4,2.4
		c0.3,0.4,0.9,0.6,1,1.3c-0.5,0.8-0.6,2-0.9,2.9c-1.4,4.4-0.9,9.9,1.1,13.2c0.6,1,2.1,3.1,4.1,2.3c1.8-0.7,1.4-2.9,1.9-4.9
		c0.1-0.5,0-0.8,0.3-1.1v0.1c0.6,1.1,1.1,2.2,1.6,3.3c1.2,1.9,3.3,3.9,5.1,5.3c0.9,0.7,1.7,1.9,2.9,2.4v-0.1h-0.1
		c-0.2-0.4-0.6-0.5-0.9-0.8c-0.7-0.7-1.5-1.6-2-2.4c-1.6-2.2-3.1-4.6-4.4-7.1c-0.6-1.2-1.2-2.6-1.7-3.8c-0.2-0.5-0.2-1.2-0.6-1.4
		c-0.6,0.9-1.5,1.6-1.9,2.7c-0.7,1.7-0.8,3.8-1.1,5.9c-0.2,0-0.1,0-0.2,0.1c-1.3-0.3-1.7-1.6-2.2-2.7c-1.2-2.8-1.4-7.3-0.4-10.5
		c0.3-0.8,1.5-3.4,1-4.2c-0.2-0.7-1-1.2-1.5-1.8c-0.5-0.7-1.1-1.7-1.4-2.5c-0.9-2.2-1.4-4.6-2.4-6.8c-0.5-1-1.3-2.1-2-3
		c-0.7-1.1-1.6-1.8-2.2-3.1c-0.2-0.4-0.5-1.1-0.2-1.6c0.1-0.3,0.2-0.4,0.5-0.5c0.5-0.4,2,0.1,2.5,0.4c1.5,0.6,2.7,1.1,3.9,2
		c0.6,0.4,1.1,1.1,1.8,1.3h0.8c1.3,0.3,2.7,0.1,3.8,0.4c2.1,0.7,4,1.6,5.7,2.7c5.1,3.3,9.4,7.9,12.2,13.4c0.5,0.9,0.7,1.7,1.1,2.7
		c0.8,1.9,1.8,3.9,2.7,5.8c0.8,1.8,1.6,3.7,2.8,5.3c0.6,0.8,2.9,1.3,4,1.7c0.8,0.4,2,0.7,2.7,1.1c1.3,0.8,2.7,1.8,3.9,2.7
		C249.1,94.2,251.1,95.2,251.2,96"/>
	
		<linearGradient id="SVGID_7_" gradientUnits="userSpaceOnUse" x1="567.1738" y1="-134.333" x2="567.1738" y2="-237.1752" gradientTransform="matrix(1 0 0 -1 -356 -85)">
		<stop  offset="0" style="stop-color:#1C75BC"/>
		<stop  offset="1" style="stop-color:#3C5DAA"/>
	</linearGradient>
	<path fill="url(#SVGID_7_)" d="M211.2,61.9c-0.7,0-1.1,0.1-1.6,0.2v0.1h0.1c0.3,0.6,0.9,1.1,1.3,1.6c0.3,0.6,0.6,1.3,0.9,1.9
		c0,0,0.1-0.1,0.1-0.1c0.6-0.4,0.8-1,0.8-2c-0.2-0.3-0.3-0.6-0.5-0.8C212,62.4,211.5,62.2,211.2,61.9"/>
	
		<linearGradient id="SVGID_8_" gradientUnits="userSpaceOnUse" x1="607.5098" y1="-134.3442" x2="607.5098" y2="-237.1738" gradientTransform="matrix(1 0 0 -1 -356 -85)">
		<stop  offset="0" style="stop-color:#1C75BC"/>
		<stop  offset="1" style="stop-color:#3C5DAA"/>
	</linearGradient>
	<path fill="url(#SVGID_8_)" d="M255,139.3h0.8v-4h-1.2l-1,2.7l-1.1-2.7h-1.2v4h0.8v-3h0l1.1,3h0.6l1.1-3V139.3L255,139.3z
		 M248.4,139.3h0.9V136h1.1v-0.7h-3.2v0.7h1.2V139.3z"/>
</g>
</svg>
