<?xml version="1.0" encoding="utf-8"?>
<!-- Generator: Adobe Illustrator 16.0.0, SVG Export Plug-In . SVG Version: 6.00 Build 0)  -->
<!DOCTYPE svg PUBLIC "-//W3C//DTD SVG 1.1//EN" "http://www.w3.org/Graphics/SVG/1.1/DTD/svg11.dtd">
<svg version="1.1" id="Layer_1" xmlns="http://www.w3.org/2000/svg" xmlns:xlink="http://www.w3.org/1999/xlink" x="0px" y="0px"
	 width="400px" height="200px" viewBox="0 0 400 200" enable-background="new 0 0 400 200" xml:space="preserve">
<g>
	<path fill="#F69922" d="M91.2,119.6c0,1-0.8,1.8-1.8,1.8H48.5c-1,0-1.8-0.8-1.8-1.8V78.7c0-1,0.8-1.8,1.8-1.8h40.9
		c1,0,1.8,0.8,1.8,1.8V119.6L91.2,119.6z"/>
	<g>
		<polygon fill="#FFFFFF" points="68.3,104 63.5,99.2 63.5,109.3 68.3,114.1 91.2,91.2 91.2,81 		"/>
		<polygon fill="#FFFFFF" points="63.5,99.2 58.4,94.1 46.7,105.8 46.7,116 58.4,104.3 		"/>
	</g>
	<g>
		<path fill="#EF5925" d="M63.5,109.3l-5.1-5.1L46.7,116v3.7c0,1,0.8,1.8,1.8,1.8h40.9c1,0,1.8-0.8,1.8-1.8V91.2l-23,23L63.5,109.3z
			"/>
	</g>
</g>
<path opacity="0.54" enable-background="new    " d="M117.9,96.1v3.7h8.8c-0.3,2.1-1,3.6-2,4.6c-1.3,1.3-3.3,2.7-6.8,2.7
	c-5.4,0-9.6-4.4-9.6-9.7c0-5.4,4.2-9.7,9.6-9.7c2.9,0,5,1.1,6.6,2.6l2.6-2.6c-2.2-2.1-5.1-3.7-9.2-3.7c-7.4,0-13.6,6-13.6,13.4
	c0,7.4,6.2,13.4,13.6,13.4c4,0,7-1.3,9.4-3.8c2.4-2.4,3.2-5.8,3.2-8.6c0-0.9-0.1-1.6-0.2-2.3H117.9z M141.4,93.1
	c-4.8,0-8.7,3.6-8.7,8.7c0,5,3.9,8.7,8.7,8.7s8.7-3.7,8.7-8.7C150.1,96.7,146.2,93.1,141.4,93.1z M141.4,107c-2.6,0-4.9-2.2-4.9-5.2
	c0-3.1,2.3-5.2,4.9-5.2s4.9,2.1,4.9,5.2C146.3,104.8,144,107,141.4,107z M184,95h-0.1c-0.9-1-2.5-1.9-4.6-1.9
	c-4.3,0-8.1,3.8-8.1,8.7c0,4.9,3.8,8.7,8.1,8.7c2.1,0,3.7-0.9,4.6-2h0.1v1.2c0,3.3-1.8,5.1-4.6,5.1c-2.3,0-3.8-1.7-4.4-3.1l-3.3,1.4
	c1,2.3,3.5,5.1,7.7,5.1c4.5,0,8.2-2.6,8.2-9V93.5H184L184,95L184,95z M179.7,107c-2.6,0-4.6-2.2-4.6-5.2c0-3.1,2-5.2,4.6-5.2
	c2.6,0,4.6,2.2,4.6,5.3C184.3,104.8,182.3,107,179.7,107z M160.8,93.1c-4.8,0-8.7,3.6-8.7,8.7c0,5,3.9,8.7,8.7,8.7
	c4.8,0,8.7-3.7,8.7-8.7C169.5,96.7,165.6,93.1,160.8,93.1z M160.8,107c-2.6,0-4.9-2.2-4.9-5.2c0-3.1,2.3-5.2,4.9-5.2
	s4.9,2.1,4.9,5.2C165.7,104.8,163.4,107,160.8,107z M190.6,84.2h3.7v26.2h-3.7V84.2z M205.9,107c-1.9,0-3.3-0.9-4.2-2.6l11.6-4.8
	l-0.4-1c-0.7-1.9-2.9-5.5-7.4-5.5c-4.5,0-8.2,3.5-8.2,8.7c0,4.9,3.7,8.7,8.6,8.7c4,0,6.3-2.4,7.2-3.8l-3-2
	C209.2,106,207.8,107,205.9,107z M205.6,96.3c1.5,0,2.8,0.8,3.3,1.9l-7.8,3.2C201.1,97.8,203.7,96.3,205.6,96.3z"/>
<g opacity="0.54" enable-background="new    ">
	<path d="M219.4,110.3l9-23.8h3.4l9,23.8h-3.4l-2.3-6.4h-10l-2.3,6.4H219.4z M226.2,101.1h7.9l-3.9-10.7H230L226.2,101.1z"/>
	<path d="M246,94.1v2.3h0.1c0.4-0.8,1.1-1.4,2.1-2c1-0.5,2-0.8,3.1-0.8c2,0,3.6,0.6,4.6,1.9c1.1,1.2,1.6,2.9,1.6,5v10h-3.1v-9.5
		c0-3-1.3-4.5-4-4.5c-1.3,0-2.3,0.5-3.1,1.5c-0.8,1-1.2,2.2-1.2,3.5v9H243V94.1H246z"/>
	<path d="M266,110.9c-1.7,0-3.2-0.5-4.3-1.5c-1.2-1-1.7-2.3-1.7-3.9c0-1.8,0.7-3.2,2.1-4.2c1.4-1,3.1-1.5,5.1-1.5
		c1.8,0,3.3,0.3,4.4,1v-0.5c0-1.2-0.4-2.1-1.2-2.9c-0.8-0.7-1.8-1.1-3-1.1c-0.9,0-1.7,0.2-2.4,0.6c-0.7,0.4-1.2,1-1.5,1.7l-2.8-1.2
		c0.4-1,1.1-1.9,2.2-2.7c1.1-0.8,2.6-1.2,4.4-1.2c2.1,0,3.8,0.6,5.2,1.8c1.4,1.2,2.1,2.9,2.1,5.1v9.8h-2.9v-2.3h-0.1
		C270.1,109.9,268.3,110.9,266,110.9z M266.5,108.1c1.3,0,2.4-0.5,3.4-1.4c1-0.9,1.5-2.1,1.5-3.3c-0.9-0.7-2.2-1.1-3.9-1.1
		c-1.5,0-2.6,0.3-3.4,1c-0.8,0.6-1.1,1.4-1.1,2.3c0,0.8,0.3,1.4,1,1.9C264.8,107.9,265.6,108.1,266.5,108.1z"/>
	<path d="M280.9,110.3h-3.1V86.6h3.1V110.3z"/>
	<path d="M289,117.5h-3.2l3.8-8.2l-6.7-15.2h3.3l4.8,11.7h0.1l4.7-11.7h3.3L289,117.5z"/>
	<path d="M308.2,110.6c-1.7,0-3-0.5-3.9-1.4c-0.9-0.9-1.3-2.2-1.3-3.8v-8.5h-2.9v-2.8h2.9v-5h3.1v5h4v2.8h-4v8.3
		c0,1.8,0.7,2.7,2.2,2.7c0.6,0,1-0.1,1.4-0.3l1.1,2.6C310,110.5,309.1,110.6,308.2,110.6z"/>
	<path d="M316.4,90c-0.4,0.4-0.9,0.6-1.5,0.6c-0.6,0-1.1-0.2-1.5-0.6c-0.4-0.4-0.6-0.9-0.6-1.5c0-0.6,0.2-1.1,0.6-1.5
		c0.4-0.4,0.9-0.6,1.5-0.6c0.6,0,1.1,0.2,1.5,0.6c0.4,0.4,0.6,0.9,0.6,1.5C317,89.1,316.8,89.6,316.4,90z M316.4,110.3h-3.1V94.1
		h3.1V110.3z"/>
	<path d="M327.6,110.9c-2.4,0-4.4-0.8-6-2.5c-1.6-1.6-2.4-3.7-2.4-6.2c0-2.5,0.8-4.5,2.4-6.2c1.6-1.6,3.6-2.5,6-2.5
		c1.8,0,3.3,0.4,4.5,1.3c1.2,0.9,2.1,2,2.6,3.4l-2.8,1.2c-0.8-2-2.4-3.1-4.5-3.1c-1.4,0-2.5,0.6-3.6,1.7c-1,1.1-1.5,2.5-1.5,4.2
		c0,1.7,0.5,3.1,1.5,4.2c1,1.1,2.2,1.7,3.6,1.7c2.3,0,3.8-1,4.7-3.1l2.7,1.2c-0.5,1.3-1.4,2.4-2.7,3.3
		C330.9,110.4,329.4,110.9,327.6,110.9z"/>
	<path d="M343.5,110.9c-1.8,0-3.3-0.4-4.5-1.3c-1.2-0.9-2.1-2-2.6-3.3l2.7-1.1c0.9,2,2.3,3.1,4.4,3.1c1,0,1.7-0.2,2.3-0.6
		c0.6-0.4,0.9-1,0.9-1.7c0-1.1-0.7-1.8-2.2-2.2l-3.3-0.8c-1-0.3-2-0.8-3-1.5c-0.9-0.7-1.4-1.7-1.4-3c0-1.4,0.6-2.6,1.9-3.5
		c1.3-0.9,2.8-1.3,4.5-1.3c1.4,0,2.7,0.3,3.9,1c1.1,0.6,1.9,1.6,2.4,2.8l-2.7,1.1c-0.6-1.4-1.8-2.2-3.7-2.2c-0.9,0-1.7,0.2-2.3,0.6
		c-0.6,0.4-0.9,0.9-0.9,1.5c0,0.9,0.7,1.6,2.2,1.9l3.2,0.8c1.5,0.4,2.7,1,3.4,1.8c0.7,0.9,1.1,1.8,1.1,2.9c0,1.5-0.6,2.7-1.8,3.7
		C346.9,110.4,345.4,110.9,343.5,110.9z"/>
</g>
</svg>
