<?xml version="1.0" encoding="utf-8"?>
<!-- Generator: Adobe Illustrator 16.0.0, SVG Export Plug-In . SVG Version: 6.00 Build 0)  -->
<!DOCTYPE svg PUBLIC "-//W3C//DTD SVG 1.1//EN" "http://www.w3.org/Graphics/SVG/1.1/DTD/svg11.dtd">
<svg version="1.1" id="Layer_1" xmlns="http://www.w3.org/2000/svg" xmlns:xlink="http://www.w3.org/1999/xlink" x="0px" y="0px"
	 width="400px" height="200px" viewBox="0 0 400 200" enable-background="new 0 0 400 200" xml:space="preserve">
<linearGradient id="SVGID_1_" gradientUnits="userSpaceOnUse" x1="556" y1="-155.5" x2="556" y2="-213.7499" gradientTransform="matrix(1 0 0 -1 -356 -85)">
	<stop  offset="0" style="stop-color:#46658E"/>
	<stop  offset="1" style="stop-color:#2C507C"/>
</linearGradient>
<path fill="url(#SVGID_1_)" d="M81.6,79.4c4.7-4.6,7.7-4.8,7.7-4.8s0.9-0.1,3.2,0.6c2.2,0.8,2.3,2,2.3,2v33.9
	c0.3,9.5-2.1,13.2-4.9,15.7c-1.6,1.3-2.9,1.5-3.1,1.5c-0.4,0-0.7,0-0.8-0.6c-0.1-0.5,0.4-1.9,0.4-1.9c1.4-3.6,1.3-9.9,1.3-9.9
	l0.1-36.6c0,0,0.1-0.7-0.5-0.5c-5.6,4.8-6.3,11.6-6.5,14.8c-0.1,4.9,2,7.5,2,7.5s0.6,0.5,0.5,1.2c0,0.9-0.9,0.9-0.9,0.9
	c-2.1-0.2-5.4-2.6-6.6-5.4c-1-2.1-1-4.4-1-4.4C75.1,90.6,76.9,84,81.6,79.4z M325,111.8c0,10.9-6.6,10.7-6.6,10.7
	c-6.3,0.2-7.9-6.4-8.3-13.2c-0.3-5.1,0-10.7,0-10.7s0-0.3-0.2,0c-2.1,3.8-3.5,9.6-4.2,14.1c-0.5,3.3-0.6,6-0.6,6s0.1,0.6-0.4,1
	c-3.4,1.6-5.6-0.7-6.4-3.1c-1-2.4-1.6-16.5-1.6-17.3c0-0.7-0.6-0.2-0.6-0.2c-4.7,7.9-4.8,19.5-4.8,21.9s-4,1.6-4,1.6
	c-3.4-0.3-3.3-1.9-3.3-1.9l-0.2-2.8c-1.2,2.2-3.4,5-6.8,4.8c-5.1-0.3-6.1-5.6-6.2-6.5c0,0-2.6,6.6-9.6,6.5c-4.8-0.1-6.7-5-6.7-5
	s-1.9,5.2-6.6,5c-4.7-0.2-8.6-5.6-8.3-12.6c0.3-7,1.4-10.5,1.4-10.5s0.4-0.7-0.3-0.7c-0.6,0-4.7,0.1-4.7,0.1s-2.3,9.2-12,20.6
	c0,0,0.1,3.6,0.1,7.6c0,7.5-0.9,17.6-11.1,18.4c-8.8-0.6-8.3-7.4-8.3-7.4c-0.2-2,1.1-5.7,6.3-10.6c5.3-4.9,7.4-6.8,7.4-6.8l-0.2-3.2
	c-3.4,5.6-8.5,5.3-8.5,5.3s-4,0.8-7.3-5.1c-1,2-3.2,5.5-6.9,5.1c-5.1-0.6-6.2-5.7-6.2-6.6c0,0-2.6,6.7-9.6,6.6
	c-4.8-0.1-6.7-5.1-6.7-5.1c-0.6-1-1-2.5-1.2-3.4c-0.1,0.2-0.1,0.4-0.2,0.6c-1.1,2.8-3.8,7.6-7.9,7.7c-7.6,0-7.9-11.8-7.9-11.8
	c-2.2,5.2-6.5,11.9-14.5,11.9s-9-2.9-9-3.3s-0.1-0.9,0.8-2.2c0.9-1.3,1.7-1.9,2.3-1.9c0.6,0,1.8,1,1.8,1s1.7,1.7,3.7,1.7
	c2.5-0.1,3.1-2.1,3.2-4.2c0.2-2.1-1.3-4.3-3.3-6.1c-2-1.8-3.6-3.2-3.6-3.2c-2.9,4.9-5.1,8.2-6.7,11c-3.9,6.3-7.7,7.3-9.2,7.1
	c-2.1-0.3-4-2.4-4.1-8.5c-0.1-6.1,0.5-16.6,0.5-17.2c0-0.5-0.5-0.3-0.5-0.3c-7.7,8.2-10,24.9-10,25.2s-0.7,0.7-1.4,0.7
	s0.2,0-2.5-0.1c-2.7-0.1-2.6-5.3-2.6-5.3l0.2-25c0-0.8,0.8-1.2,3.4-0.5c2.6,0.7,2.5,1.6,2.5,1.6l-0.1,14.5
	c6.7-19.8,11.8-16.7,14.9-15.2c3.1,1.5,2.7,3.7,2.7,3.7s-0.3,10.9-0.5,14.8c-0.1,3.8,0.4,5.4,1.3,5.5c2.1,0.5,9.8-14.2,9.8-14.2
	c-3.4-3.7-1.5-8.1,1.1-10.1c1.8-1.3,4-1.5,4-1.5s3.4-0.2,3.3,2.7c0.1,3.2-3.4,7-3.4,7c6.8,4.9,10,7.4,10.5,11.2
	c0.2,1.8-0.2,2.9-0.2,2.9c4.8-4.2,5.2-8.9,5.2-8.9l0.1-15.8l-7.2-0.1c0,0-0.5,0-0.6-1.4c0-2.5,1.3-3.6,1.3-3.6l6.9,0.1
	c0,0,0.2-7.1,0.3-8.2c0.2-1.6,1.3-1.9,4.3-1.1c3,0.8,3,1.5,3,1.5L163,85c0,0,7.5,0.4,8.6,0.5c1,0.1,1.3,0.4,1.1,2.1
	c-0.2,1.7-1.2,2.1-1.2,2.1l-8.5,0.2l-0.6,18.3c0,2.8,0.1,9.5,2.8,9.5c3.7,0.2,5.9-8.1,5.9-8.1l0-0.1c0-1.3,0-2.8,0.2-4.6
	c0.7-6.7,3.7-14.5,10.5-14.5c0,0,4.2-0.1,6.3,4l0.1-1.5c0,0-0.2-1.8,2.7-1.4c2.9,0.5,3.9,1.6,3.8,2.5c0,0-0.5,11.6-0.2,18.5
	c0.4,4,1.1,6.3,3.1,6.2c1.7-0.3,3-2.6,3.7-4.7c-2.5-21.1,9-23.7,9-23.7s5.1-0.4,7.4,3.9l0.1-1.4c0,0-0.2-1.9,2.5-1.3
	c0,0,1.1,0.1,2.3,0.6c1.2,0.4,1.6,0.7,1.6,1.9s-0.2,20.8-0.2,20.8s6-8.1,7.5-15.9c0,0-2.1-1.6-2-3.8c0.1-2.2,1.3-4.9,4.6-4.9
	c3.3,0,3.5,2.9,2.9,4.9c0,0,2.8-0.4,5.2-1c2.4-0.6,5.6-1,5.9,2.8c0.2,1.3-0.5,2.4-0.5,2.4s-1.9,8.3-1.6,11.7
	c0.3,3.4,1.2,8.5,3.8,7.9c2.6-0.6,3.5-4.3,3.5-4.3s-1.1-4.3-0.5-9.4c0.7-6.6,3.7-14.4,10.5-14.4c0,0,4.1-0.1,6.3,4l0.1-1.5
	c0,0-0.2-1.8,2.7-1.3c2.9,0.4,3.8,1.6,3.8,2.5c0,0-0.5,11.5-0.2,18.3c0.4,4,1.1,6.3,3.1,6.1c1.9-0.1,3.6-3.3,4.6-6l0-1l0.1-19.5
	c0.2-1.1,1.2-1.2,1.2-1.2l2.3,0.4c3.3,0.5,2.8,1.7,2.8,1.7v11c2.4-7.5,3.6-10.3,4.7-12.2c0.9-1.6,4-0.6,4-0.6s3.3,0.9,3.4,4
	c-0.1,5.1,0.6,13.3,0.6,13.3c0,0.1,0.1,0.2,0.2,0.1c0.1,0,0.1-0.2,0.1-0.2c0.7-5.3,3.7-14.1,4.9-16.3c1.2-2.3,4.7-0.7,4.7-0.7
	c4.2,1.4,3.6,3.9,3.6,3.9c-1.3,21.3,1.4,22.7,2.9,22.9c1.6,0.1,2.4-1.9,2.7-2.8c0.3-1,0.8-3.1,1-3.9c0.3-0.8,1.1-0.9,1.1-0.9
	S325,111,325,111.8z M183.4,95.5c-1.5,0.1-4.9,1-5.5,10.6c-0.6,9.6,1.9,12.1,4.1,12.4c2.2,0.3,5.9-3.2,6.2-13.4
	S183.4,95.5,183.4,95.5z M213.5,95.5c-1.5,0.1-5.3,1.4-6.1,10.7c-0.6,9.7,2,12.3,4.1,12.5c2.2,0.3,6-3.2,6.3-13.6
	C218.1,94.8,213.5,95.5,213.5,95.5z M218.6,125.4c-8.5,7.4-9.2,12.6-9.2,12.6s-0.8,4.3,3.3,4.5c4.9,0.5,5.8-5.5,5.9-10.7
	C218.5,129.3,218.6,125.4,218.6,125.4z M265.2,95.8c-1.5,0.1-4.9,1-5.6,10.6c-0.6,9.6,1.9,12.1,4.1,12.4s5.9-3.2,6.2-13.4
	C270.2,95.2,265.2,95.8,265.2,95.8z"/>
</svg>
