<?xml version="1.0" encoding="utf-8"?>
<!-- Generator: Adobe Illustrator 16.0.0, SVG Export Plug-In . SVG Version: 6.00 Build 0)  -->
<!DOCTYPE svg PUBLIC "-//W3C//DTD SVG 1.1//EN" "http://www.w3.org/Graphics/SVG/1.1/DTD/svg11.dtd">
<svg version="1.1" id="Layer_1" xmlns="http://www.w3.org/2000/svg" xmlns:xlink="http://www.w3.org/1999/xlink" x="0px" y="0px"
	 width="100px" height="100px" viewBox="0 0 100 100" enable-background="new 0 0 100 100" xml:space="preserve">
<g>
	<path fill="#BCBEC0" d="M94.787,76.623c0.604,2.818-0.096,5.76-1.907,8.002c-1.812,2.244-4.539,3.548-7.423,3.548h-70.91
		c-2.884,0-5.611-1.304-7.424-3.548c-1.812-2.242-2.511-5.184-1.907-8.002c4.505-20.957,23.341-36.166,44.787-36.166
		c18.318,0,34.843,10.893,42.097,27.747C93.263,70.906,94.168,73.74,94.787,76.623z M14.554,41.479c1.794,0,3.606-0.503,5.219-1.56
		c8.996-5.89,19.451-9.005,30.23-9.005c10.777,0,21.229,3.112,30.226,9.005c4.413,2.889,10.326,1.651,13.21-2.758
		c2.889-4.408,1.656-10.322-2.755-13.21c-12.111-7.931-26.182-12.123-40.681-12.123c-14.504,0-28.572,4.192-40.686,12.123
		c-4.411,2.886-5.644,8.802-2.758,13.21C8.392,39.959,11.441,41.479,14.554,41.479z"/>
</g>
</svg>
