<?xml version="1.0" encoding="utf-8"?>
<!-- Generator: Adobe Illustrator 16.0.0, SVG Export Plug-In . SVG Version: 6.00 Build 0)  -->
<!DOCTYPE svg PUBLIC "-//W3C//DTD SVG 1.1//EN" "http://www.w3.org/Graphics/SVG/1.1/DTD/svg11.dtd">
<svg version="1.1" id="Layer_1" xmlns="http://www.w3.org/2000/svg" xmlns:xlink="http://www.w3.org/1999/xlink" x="0px" y="0px"
	 width="100px" height="100px" viewBox="0 0 100 100" enable-background="new 0 0 100 100" xml:space="preserve">
<g>
	<path fill="#BCBEC0" d="M62.088,93.086c-0.866,0-1.744-0.191-2.573-0.597L50,87.838l-9.515,4.651
		c-2.845,1.39-6.279,0.273-7.763-2.522l-4.964-9.354l-10.431-1.83c-3.118-0.548-5.241-3.469-4.797-6.604l1.483-10.485L6.65,54.082
		c-2.201-2.276-2.201-5.887,0-8.163l7.364-7.611l-1.483-10.485c-0.444-3.135,1.679-6.056,4.797-6.604l10.431-1.83l4.964-9.354
		c1.485-2.797,4.918-3.911,7.763-2.522L50,12.163l9.515-4.651c2.845-1.392,6.278-0.274,7.763,2.522l4.964,9.354l10.431,1.83
		c3.118,0.548,5.241,3.469,4.797,6.604l-1.483,10.485l7.364,7.611c2.201,2.276,2.201,5.887,0,8.163l-7.364,7.611l1.483,10.485
		c0.444,3.135-1.679,6.056-4.797,6.604l-10.431,1.83l-4.964,9.354C66.226,91.948,64.194,93.086,62.088,93.086z M24.949,68.201
		l7.664,1.344c1.783,0.313,3.322,1.432,4.171,3.03l3.647,6.874l6.99-3.418c1.627-0.795,3.529-0.795,5.156,0l6.99,3.418l3.647-6.874
		c0.849-1.599,2.388-2.717,4.171-3.03l7.664-1.344l-1.09-7.705c-0.254-1.793,0.334-3.602,1.592-4.903l5.411-5.592l-5.411-5.593
		c-1.258-1.302-1.846-3.11-1.592-4.903l1.09-7.705l-7.664-1.344c-1.783-0.313-3.322-1.432-4.171-3.03l-3.647-6.874l-6.99,3.418
		c-1.627,0.795-3.529,0.795-5.156,0l-6.99-3.418l-3.647,6.874c-0.849,1.599-2.388,2.717-4.171,3.03L24.949,31.8l1.09,7.705
		c0.254,1.793-0.334,3.602-1.593,4.903l-5.41,5.593l5.41,5.592c1.259,1.302,1.847,3.11,1.593,4.903L24.949,68.201z"/>
</g>
</svg>
